tsc_tb.vcd
$date
Sun May 17 00:14:34 2026
$end
$version
Riviera-PRO Version 2025.04.139.9738
$end
$timescale
1 ps
$end

$scope module tsc_tb_top $end
$var reg 1 ! clk $end

$scope module dut_if $end
$var reg 1 " rst_n $end
$var reg 1 # enable $end
$var reg 2 $ light [1:0] $end
$var reg 1 % red $end
$var reg 1 & green $end
$var reg 1 ' yellow $end
$var reg 1 ( rst_n $end
$var reg 1 ) enable $end
$var reg 1 * rst_n $end
$var reg 1 + enable $end
$var reg 2 , light [1:0] $end
$var reg 1 - red $end
$var reg 1 . green $end
$var reg 1 / yellow $end
$upscope $end


$scope module dut $end
$var wire 1 0 clk $end
$var wire 1 1 rst_n $end
$var wire 1 2 enable $end
$var reg 2 3 light [1:0] $end
$var reg 1 4 red $end
$var reg 1 5 green $end
$var reg 1 6 yellow $end
$var reg 2 7 current_state $end
$var reg 2 8 next_state $end
$var reg 5 9 timer [4:0] $end
$var reg 1 : timer_done $end
$var parameter 32 ; RED_TIME [31:0] $end
$var parameter 32 < GREEN_TIME [31:0] $end
$var parameter 32 = YELLOW_TIME [31:0] $end
$upscope $end

$upscope $end

$enddefinitions $end
$dumpvars
0!
0"
0#
b0 $
1%
0&
0'
0(
0)
x*
x+
bx ,
x-
x.
x/
00
01
02
b0 3
14
05
06
b0 7
b0 8
bx 9
x:
b11110 ;
b11001 <
b101 =
$end
#5
1!
10
b0 9
0:
#10
0!
00
#15
1!
10
#20
0!
00
#25
1!
10
#30
0!
00
#35
1!
10
#40
0!
00
#45
1!
10
1(
1)
#50
0!
00
#55
1!
10
#60
0!
00
#65
1!
10
#70
0!
00
#75
1!
10
#80
0!
00
#85
1!
10
#90
0!
00
#95
1!
10
#100
0!
00
#105
1!
10
#110
0!
00
#115
1!
10
#120
0!
00
#125
1!
10
#130
0!
00
#135
1!
10
#140
0!
00
#145
1!
10
#150
0!
00
#155
1!
10
#160
0!
00
#165
1!
10
#170
0!
00
#175
1!
10
#180
0!
00
#185
1!
10
#190
0!
00
#195
1!
10
#200
0!
00
#205
1!
10
#210
0!
00
#215
1!
10
#220
0!
00
#225
1!
10
#230
0!
00
#235
1!
10
#240
0!
00
#245
1!
10
#250
0!
00
#255
1!
10
#260
0!
00
#265
1!
10
#270
0!
00
#275
1!
10
#280
0!
00
#285
1!
10
#290
0!
00
#295
1!
10
#300
0!
00
#305
1!
10
#310
0!
00
#315
1!
10
#320
0!
00
#325
1!
10
#330
0!
00
#335
1!
10
#340
0!
00
#345
1!
10
#350
0!
00
#355
1!
10
#360
0!
00
#365
1!
10
#370
0!
00
#375
1!
10
#380
0!
00
#385
1!
10
#390
0!
00
#395
1!
10
#400
0!
00
#405
1!
10
#410
0!
00
#415
1!
10
#420
0!
00
#425
1!
10
#430
0!
00
#435
1!
10
#440
0!
00
#445
1!
10
#450
0!
00
#455
1!
10
#460
0!
00
#465
1!
10
#470
0!
00
#475
1!
10
#480
0!
00
#485
1!
10
#490
0!
00
#495
1!
10
#500
0!
00
#505
1!
10
#510
0!
00
#515
1!
10
#520
0!
00
#525
1!
10
#530
0!
00
#535
1!
10
#540
0!
00
#545
1!
10
#550
0!
00
#555
1!
10
#560
0!
00
#565
1!
10
#570
0!
00
#575
1!
10
#580
0!
00
#585
1!
10
#590
0!
00
#595
1!
10
#600
0!
00
#605
1!
10
#610
0!
00
#615
1!
10
#620
0!
00
#625
1!
10
#630
0!
00
#635
1!
10
#640
0!
00
#645
1!
10
#650
0!
00
#655
1!
10
#660
0!
00
#665
1!
10
#670
0!
00
#675
1!
10
#680
0!
00
#685
1!
10
#690
0!
00
#695
1!
10
#700
0!
00
#705
1!
10
#710
0!
00
#715
1!
10
#720
0!
00
#725
1!
10
#730
0!
00
#735
1!
10
#740
0!
00
#745
1!
10
#750
0!
00
#755
1!
10
#760
0!
00
#765
1!
10
#770
0!
00
#775
1!
10
#780
0!
00
#785
1!
10
#790
0!
00
#795
1!
10
#800
0!
00
#805
1!
10
#810
0!
00
#815
1!
10
#820
0!
00
#825
1!
10
#830
0!
00
#835
1!
10
#840
0!
00
#845
1!
10
#850
0!
00
#855
1!
10
#860
0!
00
#865
1!
10
#870
0!
00
#875
1!
10
#880
0!
00
#885
1!
10
#890
0!
00
#895
1!
10
#900
0!
00
#905
1!
10
#910
0!
00
#915
1!
10
#920
0!
00
#925
1!
10
#930
0!
00
#935
1!
10
#940
0!
00
#945
1!
10
#950
0!
00
#955
1!
10
#960
0!
00
#965
1!
10
#970
0!
00
#975
1!
10
#980
0!
00
#985
1!
10
#990
0!
00
#995
1!
10
#1000
0!
00
#1005
1!
10
0/
0.
1-
b0 ,
0+
0*
#1010
0!
00
#1015
1!
10
#1020
0!
00
#1025
1!
10
#1030
0!
00
#1035
1!
10
#1040
0!
00
#1045
1!
10
#1050
0!
00
#1055
1!
10
#1060
0!
00
#1065
1!
10
#1070
0!
00
#1075
1!
10
#1080
0!
00
#1085
1!
10
#1090
0!
00
#1095
1!
10
#1100
0!
00
#1105
1!
10
#1110
0!
00
#1115
1!
10
#1120
0!
00
#1125
1!
10
#1130
0!
00
#1135
1!
10
#1140
0!
00
#1145
1!
10
#1150
0!
00
#1155
1!
10
#1160
0!
00
#1165
1!
10
#1170
0!
00
#1175
1!
10
#1180
0!
00
#1185
1!
10
#1190
0!
00
#1195
1!
10
#1200
0!
00
#1205
1!
10
#1210
0!
00
#1215
1!
10
#1220
0!
00
#1225
1!
10
#1230
0!
00
#1235
1!
10
#1240
0!
00
#1245
1!
10
#1250
0!
00
#1255
1!
10
#1260
0!
00
#1265
1!
10
#1270
0!
00
#1275
1!
10
#1280
0!
00
#1285
1!
10
#1290
0!
00
#1295
1!
10
#1300
0!
00
#1305
1!
10
#1310
0!
00
#1315
1!
10
#1320
0!
00
#1325
1!
10
#1330
0!
00
#1335
1!
10
#1340
0!
00
#1345
1!
10
#1350
0!
00
#1355
1!
10
#1360
0!
00
#1365
1!
10
#1370
0!
00
#1375
1!
10
#1380
0!
00
#1385
1!
10
#1390
0!
00
#1395
1!
10
#1400
0!
00
#1405
1!
10
#1410
0!
00
#1415
1!
10
#1420
0!
00
#1425
1!
10
#1430
0!
00
#1435
1!
10
#1440
0!
00
#1445
1!
10
#1450
0!
00
#1455
1!
10
#1460
0!
00
#1465
1!
10
#1470
0!
00
#1475
1!
10
#1480
0!
00
#1485
1!
10
#1490
0!
00
#1495
1!
10
#1500
0!
00
#1505
1!
10
#1510
0!
00
#1515
1!
10
#1520
0!
00
#1525
1!
10
#1530
0!
00
#1535
1!
10
#1540
0!
00
#1545
1!
10
#1550
0!
00
#1555
1!
10
#1560
0!
00
#1565
1!
10
#1570
0!
00
#1575
1!
10
#1580
0!
00
#1585
1!
10
#1590
0!
00
#1595
1!
10
#1600
0!
00
#1605
1!
10
#1610
0!
00
#1615
1!
10
#1620
0!
00
#1625
1!
10
#1630
0!
00
#1635
1!
10
#1640
0!
00
#1645
1!
10
#1650
0!
00
#1655
1!
10
#1660
0!
00
#1665
1!
10
#1670
0!
00
#1675
1!
10
#1680
0!
00
#1685
1!
10
#1690
0!
00
#1695
1!
10
#1700
0!
00
#1705
1!
10
#1710
0!
00
#1715
1!
10
#1720
0!
00
#1725
1!
10
#1730
0!
00
#1735
1!
10
#1740
0!
00
#1745
1!
10
#1750
0!
00
#1755
1!
10
#1760
0!
00
#1765
1!
10
#1770
0!
00
#1775
1!
10
#1780
0!
00
#1785
1!
10
#1790
0!
00
#1795
1!
10
#1800
0!
00
#1805
1!
10
#1810
0!
00
#1815
1!
10
#1820
0!
00
#1825
1!
10
#1830
0!
00
#1835
1!
10
#1840
0!
00
#1845
1!
10
#1850
0!
00
#1855
1!
10
#1860
0!
00
#1865
1!
10
#1870
0!
00
#1875
1!
10
#1880
0!
00
#1885
1!
10
#1890
0!
00
#1895
1!
10
#1900
0!
00
#1905
1!
10
#1910
0!
00
#1915
1!
10
#1920
0!
00
#1925
1!
10
#1930
0!
00
#1935
1!
10
#1940
0!
00
#1945
1!
10
#1950
0!
00
#1955
1!
10
#1960
0!
00
#1965
1!
10
#1970
0!
00
#1975
1!
10
#1980
0!
00
#1985
1!
10
#1990
0!
00
#1995
1!
10
#2000
0!
00
#2005
1!
10
0)
#2010
0!
00
#2015
1!
10
1#
1"
11
12
#2020
0!
00
#2025
1!
10
b1 9
#2030
0!
00
#2035
1!
10
b10 9
#2040
0!
00
#2045
1!
10
b11 9
#2050
0!
00
#2055
1!
10
b100 9
#2060
0!
00
#2065
1!
10
b101 9
#2070
0!
00
#2075
1!
10
b110 9
#2080
0!
00
#2085
1!
10
b111 9
#2090
0!
00
#2095
1!
10
b1000 9
#2100
0!
00
#2105
1!
10
b1001 9
1)
#2110
0!
00
#2115
1!
10
b1010 9
#2120
0!
00
#2125
1!
10
b1011 9
#2130
0!
00
#2135
1!
10
b1100 9
#2140
0!
00
#2145
1!
10
b1101 9
#2150
0!
00
#2155
1!
10
b1110 9
#2160
0!
00
#2165
1!
10
b1111 9
#2170
0!
00
#2175
1!
10
b10000 9
#2180
0!
00
#2185
1!
10
b10001 9
#2190
0!
00
#2195
1!
10
b10010 9
#2200
0!
00
#2205
1!
10
b10011 9
#2210
0!
00
#2215
1!
10
b10100 9
#2220
0!
00
#2225
1!
10
b10101 9
#2230
0!
00
#2235
1!
10
b10110 9
#2240
0!
00
#2245
1!
10
b10111 9
#2250
0!
00
#2255
1!
10
b11000 9
#2260
0!
00
#2265
1!
10
b11001 9
#2270
0!
00
#2275
1!
10
b11010 9
#2280
0!
00
#2285
1!
10
b11011 9
#2290
0!
00
#2295
1!
10
b11100 9
#2300
0!
00
#2305
1!
10
b11101 9
1:
b1 8
#2310
0!
00
#2315
1!
10
b0 9
b1 7
0:
b1 3
04
15
b1 $
0%
1&
#2320
0!
00
#2325
1!
10
b1 9
#2330
0!
00
#2335
1!
10
b10 9
#2340
0!
00
#2345
1!
10
b11 9
#2350
0!
00
#2355
1!
10
b100 9
#2360
0!
00
#2365
1!
10
b101 9
#2370
0!
00
#2375
1!
10
b110 9
#2380
0!
00
#2385
1!
10
b111 9
#2390
0!
00
#2395
1!
10
b1000 9
#2400
0!
00
#2405
1!
10
b1001 9
0(
0)
#2410
0!
00
#2415
1!
10
b1010 9
#2420
0!
00
#2425
1!
10
b1011 9
#2430
0!
00
#2435
1!
10
b1100 9
#2440
0!
00
#2445
1!
10
b1101 9
#2450
0!
00
#2455
1!
10
b1110 9
1(
1)
#2460
0!
00
#2465
1!
10
b1111 9
0(
0)
#2470
0!
00
#2475
1!
10
b10000 9
#2480
0!
00
#2485
1!
10
b10001 9
#2490
0!
00
#2495
1!
10
b10010 9
#2500
0!
00
#2505
1!
10
b10011 9
#2510
0!
00
#2515
1!
10
b10100 9
1(
1)
#2520
0!
00
#2525
1!
10
b10101 9
#2530
0!
00
#2535
1!
10
b10110 9
#2540
0!
00
#2545
1!
10
b10111 9
0)
#2550
0!
00
#2555
1!
10
b11000 9
1:
b10 8
#2560
0!
00
#2565
1!
10
b0 9
b10 7
0:
b10 3
04
05
16
b10 $
0&
1'
#2570
0!
00
#2575
1!
10
b1 9
#2580
0!
00
#2585
1!
10
b10 9
#2590
0!
00
#2595
1!
10
b11 9
#2600
0!
00
#2605
1!
10
b100 9
1:
b0 8
#2610
0!
00
#2615
1!
10
b0 9
b0 7
0:
b0 3
14
06
b0 $
1%
0'
#2620
0!
00
#2625
1!
10
b1 9
#2630
0!
00
#2635
1!
10
b10 9
#2640
0!
00
#2645
1!
10
b11 9
1)
#2650
0!
00
#2655
1!
10
b100 9
#2660
0!
00
#2665
1!
10
b101 9
#2670
0!
00
#2675
1!
10
b110 9
#2680
0!
00
#2685
1!
10
b111 9
#2690
0!
00
#2695
1!
10
b1000 9
0(
0)
#2700
0!
00
#2705
1!
10
b1001 9
#2710
0!
00
#2715
1!
10
b1010 9
#2720
0!
00
#2725
1!
10
b1011 9
#2730
0!
00
#2735
1!
10
b1100 9
#2740
0!
00
#2745
1!
10
b1101 9
1(
1)
#2750
0!
00
#2755
1!
10
b1110 9
#2760
0!
00
#2765
1!
10
b1111 9
#2770
0!
00
#2775
1!
10
b10000 9
#2780
0!
00
#2785
1!
10
b10001 9
#2790
0!
00
#2795
1!
10
b10010 9
#2800
0!
00
#2805
1!
10
b10011 9
#2810
0!
00
#2815
1!
10
b10100 9
#2820
0!
00
#2825
1!
10
b10101 9
#2830
0!
00
#2835
1!
10
b10110 9
#2840
0!
00
#2845
1!
10
b10111 9
#2850
0!
00
#2855
1!
10
b11000 9
#2860
0!
00
#2865
1!
10
b11001 9
#2870
0!
00
#2875
1!
10
b11010 9
#2880
0!
00
#2885
1!
10
b11011 9
#2890
0!
00
#2895
1!
10
b11100 9
#2900
0!
00
#2905
1!
10
b11101 9
1:
b1 8
#2910
0!
00
#2915
1!
10
b0 9
b1 7
0:
b1 3
04
15
b1 $
0%
1&
0)
#2920
0!
00
#2925
1!
10
b1 9
#2930
0!
00
#2935
1!
10
b10 9
#2940
0!
00
#2945
1!
10
b11 9
#2950
0!
00
#2955
1!
10
b100 9
#2960
0!
00
#2965
1!
10
b101 9
#2970
0!
00
#2975
1!
10
b110 9
#2980
0!
00
#2985
1!
10
b111 9
#2990
0!
00
#2995
1!
10
b1000 9
#3000
0!
00
#3005
1!
10
b1001 9
1)
#3010
0!
00
#3015
1!
10
b1010 9
1+
1*
#3020
0!
00
#3025
1!
10
b1011 9
0#
02
#3030
0!
00
#3035
1!
10
b0 9
#3040
0!
00
#3045
1!
10
#3050
0!
00
#3055
1!
10
0(
0)
#3060
0!
00
#3065
1!
10
#3070
0!
00
#3075
1!
10
#3080
0!
00
#3085
1!
10
#3090
0!
00
#3095
1!
10
#3100
0!
00
#3105
1!
10
1(
1)
